text,lemma,pos,morph,dep,n_lefts,n_rights,is_sent_start,motif,sent_id,doc
Moi,soi,PRON,Number=Sing|Person=1,obj,0,0,True,soi,0,Arval_Redhamaj
reculer,reculer,VERB,VerbForm=Inf,ROOT,1,3,False,INF,0,Arval_Redhamaj
",",",",PUNCT,,punct,0,0,False,",",0,Arval_Redhamaj
reculer,reculer,VERB,VerbForm=Inf,conj,1,0,False,INF,0,Arval_Redhamaj
...,...,PUNCT,,punct,0,0,False,...,0,Arval_Redhamaj
Moi,soi,PRON,Number=Sing|Person=1,obj,0,0,False,soi,0,Arval_Redhamaj
reculer,reculer,VERB,VerbForm=Inf,conj,2,0,False,INF,0,Arval_Redhamaj
.,.,PUNCT,,punct,0,0,False,.,0,Arval_Redhamaj
Pas,pas,ADV,Polarity=Neg,advmod,0,0,True,pas,1,Arval_Redhamaj
voir,voir,VERB,VerbForm=Inf,ROOT,1,5,False,INF,1,Arval_Redhamaj
en,en,ADP,,case,0,0,False,en,1,Arval_Redhamaj
bas,bas,NOUN,Gender=Masc|Number=Sing,obl,1,0,False,NC,1,Arval_Redhamaj
",",",",PUNCT,,punct,0,0,False,",",1,Arval_Redhamaj
pas,pas,ADV,Polarity=Neg,advmod,0,0,False,pas,1,Arval_Redhamaj
voir,voir,VERB,VerbForm=Inf,conj,2,3,False,INF,1,Arval_Redhamaj
petit,petit,ADJ,Gender=Masc|Number=Sing,amod,0,0,False,ADJ,1,Arval_Redhamaj
fantôme,fantôme,NOUN,Gender=Masc|Number=Sing,obj,1,0,False,NC,1,Arval_Redhamaj
de,de,ADP,,case,0,0,False,de,1,Arval_Redhamaj
moi,soi,PRON,Number=Sing|Person=1,obl:mod,1,0,False,soi,1,Arval_Redhamaj
courir,courir,VERB,VerbForm=Inf,xcomp,0,1,False,INF,1,Arval_Redhamaj
dans,dans,ADP,,case,0,0,False,dans,1,Arval_Redhamaj
la,le,DET,Definite=Def|Gender=Fem|Number=Sing|PronType=Art,det,0,0,False,le,1,Arval_Redhamaj
neige,neige,NOUN,Gender=Fem|Number=Sing,obl:mod,2,5,False,NC,1,Arval_Redhamaj
tout,tout,ADV,,advmod,0,0,False,tout,1,Arval_Redhamaj
seul,seul,ADJ,Gender=Masc|Number=Sing,amod,1,0,False,ADJ,1,Arval_Redhamaj
et,et,CCONJ,,cc,0,0,False,et,1,Arval_Redhamaj
cadavre,cadavre,NOUN,Gender=Masc|Number=Sing,conj,1,1,False,NC,1,Arval_Redhamaj
Aoi,Aoi,PROPN,,appos,0,0,False,PROPN,1,Arval_Redhamaj
",",",",PUNCT,,punct,0,0,False,",",1,Arval_Redhamaj
cadavre,cadavre,NOUN,Gender=Masc|Number=Sing,conj,1,2,False,NC,1,Arval_Redhamaj
petite,petit,ADJ,Gender=Fem|Number=Sing,amod,0,0,False,ADJ,1,Arval_Redhamaj
source,source,NOUN,Gender=Fem|Number=Sing,appos,1,0,False,NC,1,Arval_Redhamaj
tout,tout,ADV,,advmod,0,0,False,tout,1,Arval_Redhamaj
frais,frais,ADJ,Gender=Masc|Number=Sing,amod,1,1,False,ADJ,1,Arval_Redhamaj
dans,dans,ADP,,case,0,0,False,dans,1,Arval_Redhamaj
neige,neige,NOUN,Gender=Fem|Number=Sing,obl:mod,1,0,False,NC,1,Arval_Redhamaj
",",",",PUNCT,,punct,0,0,False,",",1,Arval_Redhamaj
cadavre,cadavre,NOUN,Gender=Masc|Number=Sing,conj,1,1,False,NC,1,Arval_Redhamaj
pas,pas,ADV,Polarity=Neg,advmod,0,0,False,pas,1,Arval_Redhamaj
voir,voir,VERB,VerbForm=Inf,acl,1,0,False,INF,1,Arval_Redhamaj
",",",",PUNCT,,punct,0,0,False,",",1,Arval_Redhamaj
pas,pas,ADV,Polarity=Neg,advmod,0,0,False,pas,1,Arval_Redhamaj
possible,possible,ADJ,Gender=Masc|Number=Sing,conj,2,0,False,ADJ,1,Arval_Redhamaj
",",",",PUNCT,,punct,0,0,False,",",1,Arval_Redhamaj
reculer,reculer,VERB,VerbForm=Inf,conj,1,0,False,INF,1,Arval_Redhamaj
...,...,PUNCT,,punct,0,0,False,...,1,Arval_Redhamaj
Siphon,Siphon,PROPN,,nsubj,0,0,False,PROPN,1,Arval_Redhamaj
montre,montrer,VERB,Mood=Ind|Number=Sing|Person=3|Tense=Pres|VerbForm=Fin,parataxis,2,3,False,PRES,1,Arval_Redhamaj
futur,futur,ADJ,Gender=Masc|Number=Sing,xcomp,0,0,False,ADJ,1,Arval_Redhamaj
",",",",PUNCT,,punct,0,0,False,",",1,Arval_Redhamaj
je,il,PRON,Number=Sing|Person=1|PronType=Prs,nsubj,0,0,False,je,1,Arval_Redhamaj
sais,savoir,VERB,Mood=Ind|Number=Sing|Person=1|Tense=Pres|VerbForm=Fin,conj,2,0,False,PRES,1,Arval_Redhamaj
",",",",PUNCT,,punct,0,0,False,",",1,Arval_Redhamaj
futur,futur,ADJ,Gender=Masc|Number=Sing,advcl,1,0,False,ADJ,1,Arval_Redhamaj
à,à,ADP,,case,0,0,False,à,1,Arval_Redhamaj
nous,lui,PRON,Number=Plur|Person=1|PronType=Prs,det,0,0,False,nous,1,Arval_Redhamaj
Oroshi,Oroshi,PROPN,,nsubj,2,0,False,PROPN,1,Arval_Redhamaj
a,avoir,AUX,Mood=Ind|Number=Sing|Person=3|Tense=Pres|VerbForm=Fin,aux:tense,0,0,False,avoir,1,Arval_Redhamaj
dit,dire,VERB,Gender=Masc|Number=Sing|Tense=Past|VerbForm=Part,parataxis,3,1,False,PPAS,1,Arval_Redhamaj
",",",",PUNCT,,punct,0,0,False,",",1,Arval_Redhamaj
Oroshi,Oroshi,PROPN,,nsubj,0,0,False,PROPN,1,Arval_Redhamaj
sait,savoir,VERB,Mood=Ind|Number=Sing|Person=3|Tense=Pres|VerbForm=Fin,conj,2,3,False,PRES,1,Arval_Redhamaj
",",",",PUNCT,,punct,0,0,False,",",1,Arval_Redhamaj
siphon,siphon,NOUN,Gender=Masc|Number=Sing,conj,1,1,False,NC,1,Arval_Redhamaj
pas,pas,ADV,Polarity=Neg,advmod,0,0,False,pas,1,Arval_Redhamaj
bon,bon,ADJ,Gender=Masc|Number=Sing,amod,1,0,False,ADJ,1,Arval_Redhamaj
",",",",PUNCT,,punct,0,0,False,",",1,Arval_Redhamaj
moi,soi,PRON,Number=Sing|Person=1,nsubj,0,0,False,soi,1,Arval_Redhamaj
veux,vouloir,VERB,Mood=Ind|Number=Sing|Person=1|Tense=Pres|VerbForm=Fin,conj,2,2,False,PRES,1,Arval_Redhamaj
pas,pas,ADV,Polarity=Neg,advmod,0,0,False,pas,1,Arval_Redhamaj
voir,voir,VERB,VerbForm=Inf,xcomp,0,1,False,INF,1,Arval_Redhamaj
rivière,rivière,NOUN,Gender=Fem|Number=Sing,obj,0,5,False,NC,1,Arval_Redhamaj
de,de,ADP,,case,0,0,False,de,1,Arval_Redhamaj
flocons,flocon,NOUN,Gender=Fem|Number=Plur,nmod,1,0,False,NC,1,Arval_Redhamaj
qui,qui,PRON,PronType=Rel,nsubj,0,0,False,qui,1,Arval_Redhamaj
tombe,tomber,VERB,Mood=Ind|Number=Sing|Person=3|Tense=Pres|VerbForm=Fin,acl:relcl,1,0,False,PRES,1,Arval_Redhamaj
et,et,CCONJ,,cc,0,0,False,et,1,Arval_Redhamaj
Aoi,Aoi,PROPN,,conj,1,1,False,PROPN,1,Arval_Redhamaj
cadavre,cadavrir,NOUN,Gender=Masc|Number=Sing,flat:name,0,0,False,NC,1,Arval_Redhamaj
",",",",PUNCT,,punct,0,0,False,",",1,Arval_Redhamaj
Aoua,Aoua,PROPN,,conj,1,1,False,PROPN,1,Arval_Redhamaj
glace,glacer,ADJ,Gender=Fem|Number=Sing,amod,0,0,False,ADJ,1,Arval_Redhamaj
",",",",PUNCT,,punct,0,0,False,",",1,Arval_Redhamaj
"""","""",PUNCT,,punct,0,0,False,"""",1,Arval_Redhamaj
Cours,cours,NOUN,Gender=Masc|Number=Sing,conj,2,1,False,NC,1,Arval_Redhamaj
",",",",PUNCT,,punct,0,0,False,",",1,Arval_Redhamaj
galope,galoper,VERB,Mood=Ind|Number=Sing|Person=3|Tense=Pres|VerbForm=Fin,conj,0,6,False,PRES,1,Arval_Redhamaj
la,le,DET,Definite=Def|Gender=Fem|Number=Sing|PronType=Art,det,0,0,False,le,1,Arval_Redhamaj
Lueur,lueur,PROPN,,obj,1,0,False,PROPN,1,Arval_Redhamaj
...,...,PUNCT,,punct,0,0,False,...,1,Arval_Redhamaj
"""","""",PUNCT,,punct,0,0,False,"""",1,Arval_Redhamaj
et,et,CCONJ,,cc,0,0,False,et,1,Arval_Redhamaj
je,il,PRON,Number=Sing|Person=1|PronType=Prs,nsubj,0,0,False,je,1,Arval_Redhamaj
courais,cour,VERB,Mood=Cnd|Number=Sing|Person=1|Tense=Pres|VerbForm=Fin,conj,2,0,False,VCOND,1,Arval_Redhamaj
",",",",PUNCT,,punct,0,0,False,",",1,Arval_Redhamaj
je,il,PRON,Number=Sing|Person=1|PronType=Prs,nsubj,0,0,False,je,1,Arval_Redhamaj
courais,cour,VERB,Mood=Cnd|Number=Sing|Person=1|Tense=Pres|VerbForm=Fin,conj,2,2,False,VCOND,1,Arval_Redhamaj
neige,neige,NOUN,Gender=Fem|Number=Sing,obj,0,1,False,NC,1,Arval_Redhamaj
profonde,profond,ADJ,Gender=Fem|Number=Sing,amod,0,0,False,ADJ,1,Arval_Redhamaj
",",",",PUNCT,,punct,0,0,False,",",1,Arval_Redhamaj
neige,neiger,VERB,Mood=Ind|Number=Sing|Person=3|Tense=Pres|VerbForm=Fin,conj,1,1,False,PRES,1,Arval_Redhamaj
pas,pas,ADV,Polarity=Neg,advmod,0,0,False,pas,1,Arval_Redhamaj
vite,vite,ADV,,advmod,1,0,False,ADV,1,Arval_Redhamaj
",",",",PUNCT,,punct,0,0,False,",",1,Arval_Redhamaj
j',il,PRON,Number=Sing|Person=1|PronType=Prs,nsubj,0,0,False,je,1,Arval_Redhamaj
avais,avoir,AUX,Mood=Ind|Number=Sing|Person=1|Tense=Imp|VerbForm=Fin,aux:tense,0,0,False,avoir,1,Arval_Redhamaj
vu,voir,VERB,Gender=Masc|Number=Sing|Tense=Past|VerbForm=Part,conj,3,2,False,PPAS,1,Arval_Redhamaj
corps,corps,NOUN,Gender=Masc|Number=Sing,obj,0,1,False,NCCOR,1,Arval_Redhamaj
tombé,tomber,VERB,Gender=Masc|Number=Sing|Tense=Past|VerbForm=Part,acl,0,1,False,PPAS,1,Arval_Redhamaj
roc,roc,ADJ,Gender=Masc|Number=Sing,xcomp,0,0,False,ADJ,1,Arval_Redhamaj
",",",",PUNCT,,punct,0,0,False,",",1,Arval_Redhamaj
corps,corps,NOUN,Gender=Masc|Number=Sing,conj,1,1,False,NCCOR,1,Arval_Redhamaj
raclé,racler,VERB,Gender=Masc|Number=Sing|Tense=Past|VerbForm=Part,acl,0,0,False,PPAS,1,Arval_Redhamaj
.,.,PUNCT,,punct,0,0,False,.,1,Arval_Redhamaj
Et,et,CCONJ,,cc,0,0,True,et,2,Arval_Redhamaj
alors,alors,ADV,,ROOT,1,1,False,alors,2,Arval_Redhamaj
...,...,PUNCT,,punct,0,0,False,...,2,Arval_Redhamaj
Futur,futur,PROPN,,nsubj,0,0,True,PROPN,3,Arval_Redhamaj
pas,pas,ADV,Polarity=Neg,advmod,0,0,False,pas,3,Arval_Redhamaj
ça,ça,PRON,Gender=Masc|Number=Sing|Person=3|PronType=Dem,ROOT,2,3,False,ça,3,Arval_Redhamaj
",",",",PUNCT,,punct,0,0,False,",",3,Arval_Redhamaj
futur,futur,ADJ,Gender=Masc|Number=Sing,amod,0,0,False,ADJ,3,Arval_Redhamaj
veux,vouloir,ADJ,Gender=Masc|Number=Sing,amod,0,0,False,ADJ,3,Arval_Redhamaj
fuir,fuir,NOUN,Gender=Masc|Number=Sing,conj,3,0,False,NC,3,Arval_Redhamaj
...,...,PUNCT,,punct,0,0,False,...,3,Arval_Redhamaj
Non,non,PROPN,,conj,1,1,False,non,3,Arval_Redhamaj
!,!,PUNCT,,punct,0,0,False,!,3,Arval_Redhamaj
!,!,PUNCT,,punct,0,0,False,!,3,Arval_Redhamaj
Reculer,reculer,VERB,VerbForm=Inf,acl,0,4,True,INF,4,Arval_Redhamaj
derrière,derrière,ADP,,case,0,0,False,derrière,4,Arval_Redhamaj
corde,corde,NOUN,Gender=Masc|Number=Sing,obl,1,0,False,NC,4,Arval_Redhamaj
...,...,PUNCT,,punct,0,0,False,...,4,Arval_Redhamaj
pas,pas,ADV,Polarity=Neg,advmod,0,0,False,pas,4,Arval_Redhamaj
glisser,glisser,VERB,VerbForm=Inf,conj,2,1,False,INF,4,Arval_Redhamaj
...,...,PUNCT,,punct,0,0,False,...,4,Arval_Redhamaj
pas,pas,ADV,Polarity=Neg,advmod,0,0,False,pas,4,Arval_Redhamaj
pouvoir,pouvoir,VERB,VerbForm=Inf,conj,2,1,False,INF,4,Arval_Redhamaj
poser,poser,VERB,VerbForm=Inf,xcomp,0,2,False,INF,4,Arval_Redhamaj
gonfalon,gonfalon,NOUN,Gender=Masc|Number=Sing,obj,0,0,False,NC,4,Arval_Redhamaj
mais,mais,CCONJ,,cc,0,0,False,mais,4,Arval_Redhamaj
prépare,préparer,VERB,Mood=Ind|Number=Sing|Person=3|Tense=Pres|VerbForm=Fin,conj,1,2,False,PRES,4,Arval_Redhamaj
chemin,chemin,NOUN,Gender=Masc|Number=Sing,obj,0,0,False,NC,4,Arval_Redhamaj
tout,tout,ADV,,advmod,0,1,False,tout,4,Arval_Redhamaj
comme,comme,SCONJ,,fixed,0,0,False,comme,4,Arval_Redhamaj
),),PUNCT,,punct,0,0,False,),4,Arval_Redhamaj
-,-,PUNCT,,punct,0,0,False,-,4,Arval_Redhamaj
éclaireur,éclaireur,NOUN,Gender=Masc|Number=Sing,nsubj,1,3,False,NC,4,Arval_Redhamaj
reste,rester,VERB,Mood=Ind|Number=Sing|Person=3|Tense=Pres|VerbForm=Fin,conj,0,0,False,PRES,4,Arval_Redhamaj
),),PUNCT,,punct,0,0,False,),4,Arval_Redhamaj
-,-,PUNCT,,punct,0,0,False,-,4,Arval_Redhamaj
montre,montrer,VERB,Mood=Ind|Number=Sing|Person=3|Tense=Pres|VerbForm=Fin,ROOT,1,13,False,PRES,4,Arval_Redhamaj
contrevents,contrevent,NOUN,Gender=Masc|Number=Plur,obj,0,0,False,NC,4,Arval_Redhamaj
à,à,ADP,,case,0,0,False,à,4,Arval_Redhamaj
golgoth,golgoth,NOUN,Gender=Fem|Number=Sing,obl:arg,1,1,False,NC,4,Arval_Redhamaj
),),PUNCT,,punct,0,0,False,),4,Arval_Redhamaj
-,-,PUNCT,,punct,0,0,False,-,4,Arval_Redhamaj
galope,galope,NOUN,Gender=Masc|Number=Sing,conj,1,1,False,NC,4,Arval_Redhamaj
en,en,ADP,,case,0,0,False,en,4,Arval_Redhamaj
tête,tête,NOUN,Gender=Fem|Number=Sing,nmod,1,0,False,NCCOR,4,Arval_Redhamaj
galope,galoper,VERB,Mood=Ind|Number=Sing|Person=3|Tense=Pres|VerbForm=Fin,conj,0,9,False,PRES,4,Arval_Redhamaj
galope,galope,NOUN,Gender=Fem|Number=Sing,obj,0,0,False,NC,4,Arval_Redhamaj
sous,sous,ADP,,case,0,0,False,sous,4,Arval_Redhamaj
le,le,DET,Definite=Def|Gender=Masc|Number=Sing|PronType=Art,det,0,0,False,le,4,Arval_Redhamaj
névé,névé,NOUN,Gender=Masc|Number=Sing,obl,2,1,False,NC,4,Arval_Redhamaj
bon,bon,ADJ,Gender=Masc|Number=Sing,amod,0,0,False,ADJ,4,Arval_Redhamaj
rotor,rotor,NOUN,Gender=Masc|Number=Sing,appos,1,0,False,NC,4,Arval_Redhamaj
),),PUNCT,,punct,0,0,False,),4,Arval_Redhamaj
-,-,PUNCT,,punct,0,0,False,-,4,Arval_Redhamaj
pénétrante,pénétrant,NOUN,Gender=Fem|Number=Sing,obj,0,1,False,NC,4,Arval_Redhamaj
facile,facile,ADJ,Gender=Fem|Number=Sing,amod,0,0,False,ADJ,4,Arval_Redhamaj
en,en,ADP,,case,0,0,False,en,4,Arval_Redhamaj
sud-est,sud-est,NOUN,Gender=Masc|Number=Sing,nmod,1,0,False,NC,4,Arval_Redhamaj
repère,repère,NOUN,Gender=Masc|Number=Sing,conj,1,0,False,NC,4,Arval_Redhamaj
),),PUNCT,,punct,0,0,False,),4,Arval_Redhamaj
-,-,PUNCT,,punct,0,0,False,-,4,Arval_Redhamaj
juste,juste,ADV,,advmod,0,0,False,ADV,4,Arval_Redhamaj
suivre,suivre,VERB,VerbForm=Inf,xcomp,1,3,False,INF,4,Arval_Redhamaj
à,à,ADP,,case,0,0,False,à,4,Arval_Redhamaj
main,main,NOUN,Gender=Fem|Number=Sing,obl:mod,1,1,False,NCCOR,4,Arval_Redhamaj
gauche,gauche,ADJ,Gender=Fem|Number=Sing,amod,0,0,False,ADJ,4,Arval_Redhamaj
éboulis,éboulir,PROPN,,obl,0,2,False,PROPN,4,Arval_Redhamaj
),),PUNCT,,punct,0,0,False,),4,Arval_Redhamaj
-,-,PUNCT,,punct,0,0,False,-,4,Arval_Redhamaj
cairn,cairn,NOUN,Gender=Masc|Number=Sing,obj,0,1,False,NC,4,Arval_Redhamaj
à,à,ADP,,mark,0,0,False,à,4,Arval_Redhamaj
faire,faire,VERB,VerbForm=Inf,acl,1,0,False,INF,4,Arval_Redhamaj
),),PUNCT,,punct,0,0,False,),4,Arval_Redhamaj
-,-,PUNCT,,punct,0,0,False,-,4,Arval_Redhamaj
trace,trace,NOUN,Gender=Fem|Number=Sing,parataxis,2,2,False,NC,4,Arval_Redhamaj
d',de,ADP,,case,0,0,False,de,4,Arval_Redhamaj
izard,izard,NOUN,Gender=Masc|Number=Sing,nmod,1,2,False,NC,4,Arval_Redhamaj
petites,petit,ADJ,Gender=Fem|Number=Plur,amod,0,0,False,ADJ,4,Arval_Redhamaj
crottes,crotte,NOUN,Gender=Fem|Number=Plur,appos,0,1,False,NC,4,Arval_Redhamaj
longer,longer,ADV,,advmod,0,0,False,ADV,4,Arval_Redhamaj
crottes,crotte,ADJ,Gender=Fem|Number=Plur,amod,1,0,False,ADJ,4,Arval_Redhamaj
),),PUNCT,,punct,0,0,False,),4,Arval_Redhamaj
-,-,PUNCT,,punct,0,0,False,-,4,Arval_Redhamaj
retraverser,retraverser,VERB,VerbForm=Inf,parataxis,1,4,False,INF,4,Arval_Redhamaj
sous,sous,ADP,,case,0,0,False,sous,4,Arval_Redhamaj
pin,pin,NOUN,Gender=Masc|Number=Sing,obl,1,0,False,NC,4,Arval_Redhamaj
à,à,ADP,,case,0,0,False,à,4,Arval_Redhamaj
crochet,crocheh,DET,Gender=Masc|Number=Sing|PronType=Dem,det,0,0,False,crocheh,4,Arval_Redhamaj
tête,tête,NOUN,Gender=Fem|Number=Sing,obl:mod,2,1,False,NCCOR,4,Arval_Redhamaj
de,de,ADP,,case,0,0,False,de,4,Arval_Redhamaj
tapir,tapir,NOUN,Gender=Masc|Number=Sing,nmod,1,2,False,NC,4,Arval_Redhamaj
bon,bon,ADJ,Gender=Masc|Number=Sing,amod,0,0,False,ADJ,4,Arval_Redhamaj
thermique,thermique,ADJ,Gender=Masc|Number=Sing,amod,0,0,False,ADJ,4,Arval_Redhamaj
alors,alors,ADV,,advmod,0,0,False,alors,4,Arval_Redhamaj
),),PUNCT,,punct,0,0,False,),4,Arval_Redhamaj
-,-,PUNCT,,punct,0,0,False,-,4,Arval_Redhamaj
grimper,grimper,VERB,VerbForm=Inf,conj,1,2,False,INF,4,Arval_Redhamaj
droit,droit,NOUN,Gender=Masc|Number=Sing,obj,0,0,False,NC,4,Arval_Redhamaj
face,face,ADV,,advmod,0,0,False,ADV,4,Arval_Redhamaj
pente,penter,VERB,Mood=Sub|Number=Sing|Person=3|Tense=Pres|VerbForm=Fin,conj,1,1,False,VSUBP,4,Arval_Redhamaj
direct,direct,NOUN,Gender=Masc|Number=Sing,obj,0,1,False,NC,4,Arval_Redhamaj
sur,sur,ADP,,case,0,0,False,sur,4,Arval_Redhamaj
collet,collet,NOUN,Gender=Masc|Number=Sing,nmod,1,0,False,NC,4,Arval_Redhamaj
),),PUNCT,,punct,0,0,False,),4,Arval_Redhamaj
-,-,PUNCT,,punct,0,0,False,-,4,Arval_Redhamaj
basculer,basculer,VERB,VerbForm=Inf,xcomp,0,1,False,INF,4,Arval_Redhamaj
sur,sur,ADP,,case,0,0,False,sur,4,Arval_Redhamaj
ubac,ubac,NOUN,Gender=Fem|Number=Sing,obl,1,4,False,NC,4,Arval_Redhamaj
trace,trace,NOUN,Gender=Fem|Number=Sing,nmod,0,0,False,NC,4,Arval_Redhamaj
oblique,oblique,ADJ,Gender=Fem|Number=Sing,amod,0,0,False,ADJ,4,Arval_Redhamaj
oblique,oblique,ADJ,Gender=Fem|Number=Sing,amod,0,0,False,ADJ,4,Arval_Redhamaj
tombante,tombant,ADJ,Gender=Fem|Number=Sing,amod,0,0,False,ADJ,4,Arval_Redhamaj
),),PUNCT,,punct,0,0,False,),4,Arval_Redhamaj
-,-,PUNCT,,punct,0,0,False,-,4,Arval_Redhamaj
viser,viser,VERB,VerbForm=Inf,xcomp,1,1,False,INF,4,Arval_Redhamaj
ligne,ligne,NOUN,Gender=Fem|Number=Sing,obj,0,2,False,NC,4,Arval_Redhamaj
de,de,ADP,,case,0,0,False,de,4,Arval_Redhamaj
talweg,talweg,NOUN,Gender=Masc|Number=Sing,nmod,1,0,False,NC,4,Arval_Redhamaj
toujours,toujours,ADV,,advmod,0,0,False,toujours,4,Arval_Redhamaj
meilleur,meilleur,ADJ,Gender=Masc|Number=Sing,amod,0,0,False,ADJ,4,Arval_Redhamaj
abri,abri,NOUN,Gender=Masc|Number=Sing,appos,2,2,False,NC,4,Arval_Redhamaj
vallon,vallon,ADJ,Gender=Masc|Number=Sing,amod,0,0,False,ADJ,4,Arval_Redhamaj
)-,)-,PUNCT,,punct,0,0,False,)-,4,Arval_Redhamaj
suivez,suivre,VERB,Mood=Ind|Number=Plur|Person=2|Tense=Pres|VerbForm=Fin,conj,1,1,False,PRES,4,Arval_Redhamaj
la,le,DET,Definite=Def|Gender=Fem|Number=Sing|PronType=Art,det,0,0,False,le,4,Arval_Redhamaj
lueur,lueur,NOUN,Gender=Fem|Number=Sing,obj,1,0,False,NC,4,Arval_Redhamaj
suivez,suivoir,VERB,Mood=Imp|Number=Plur|Person=2|Tense=Pres|VerbForm=Fin,parataxis,0,1,False,IMP,4,Arval_Redhamaj
...,...,PUNCT,,punct,0,0,False,...,4,Arval_Redhamaj
