text,lemma,pos,morph,dep,n_lefts,n_rights,is_sent_start,motif,sent_id,doc
Ça,ça,PRON,Gender=Masc|Number=Sing|PronType=Dem,nsubj,0,0,True,ça,0,Firost
me,lui,PRON,Number=Sing|Person=1|PronType=Prs,iobj,0,0,False,me,0,Firost
fait,faire,VERB,Mood=Ind|Number=Sing|Person=3|Tense=Pres|VerbForm=Fin,ROOT,2,3,False,PRES,0,Firost
toujours,toujours,ADV,,advmod,0,0,False,toujours,0,Firost
de,de,ADP,,case,0,0,False,de,0,Firost
le,le,DET,Definite=Def|Gender=Masc|Number=Sing|PronType=Art,det,0,0,False,le,0,Firost
frisson,frisson,NOUN,Gender=Masc|Number=Sing,obl:arg,2,1,False,NCABS,0,Firost
dans,dans,ADP,,case,0,0,False,dans,0,Firost
le,le,DET,Definite=Def|Gender=Masc|Number=Sing|PronType=Art,det,0,0,False,le,0,Firost
dos,dos,NOUN,Gender=Masc|Number=Sing,nmod,2,0,False,NCCOR,0,Firost
.,.,PUNCT,,punct,0,0,False,.,0,Firost
Il,il,PRON,Gender=Masc|Number=Sing|Person=3|PronType=Prs,nsubj,0,0,True,il,1,Firost
parle,parler,VERB,Mood=Ind|Number=Sing|Person=3|Tense=Pres|VerbForm=Fin,ROOT,1,3,False,PRES,1,Firost
bien,bien,ADV,,advmod,0,0,False,bien,1,Firost
ce,ce,DET,Gender=Masc|Number=Sing|PronType=Dem,det,0,0,False,ce,1,Firost
con,con,NOUN,Gender=Masc|Number=Sing,obj,1,0,False,NC,1,Firost
...,...,PUNCT,,punct,0,0,False,...,1,Firost
Et,et,CCONJ,,cc,0,0,True,et,2,Firost
les,le,DET,Definite=Def|Number=Plur|PronType=Art,det,0,0,False,le,2,Firost
autres,autre,PRON,Number=Plur,ROOT,2,2,False,autre,2,Firost
en,en,ADP,,case,0,0,False,en,2,Firost
face,face,NOUN,Gender=Fem|Number=Sing,nmod,1,1,False,NC,2,Firost
qui,qui,PRON,PronType=Rel,nsubj,0,0,False,qui,2,Firost
applaudissent,applaudir,VERB,Mood=Ind|Number=Plur|Person=3|Tense=Pres|VerbForm=Fin,acl:relcl,1,1,False,PRES,2,Firost
à,à,ADP,,mark,0,0,False,à,2,Firost
tout,tout,PRON,Gender=Masc|Number=Sing,obj,0,0,False,tout,2,Firost
casser,casser,VERB,VerbForm=Inf,xcomp,2,0,False,INF,2,Firost
!,!,PUNCT,,punct,0,0,False,!,2,Firost
Ce,ce,DET,Gender=Masc|Number=Sing|PronType=Dem,det,0,0,True,ce,3,Firost
connard,connard,NOUN,Gender=Masc|Number=Sing,ROOT,1,2,False,NC,3,Firost
de,de,ADP,,case,0,0,False,de,3,Firost
Larco,Larco,PROPN,,nmod,1,0,False,PROPN,3,Firost
!,!,PUNCT,,punct,0,0,False,!,3,Firost
On,on,PRON,Gender=Masc|Number=Sing|Person=3,nsubj,0,0,True,on,4,Firost
lui,lui,PRON,Number=Sing|Person=3|PronType=Prs,iobj,0,0,False,lui,4,Firost
dit,dire,VERB,Mood=Ind|Number=Sing|Person=3|Tense=Pres|VerbForm=Fin,ROOT,2,3,False,PRES,4,Firost
de,de,ADP,,mark,0,0,False,de,4,Firost
pas,pas,ADV,Polarity=Neg,advmod,0,0,False,pas,4,Firost
regarder,regarder,VERB,VerbForm=Inf,xcomp,2,0,False,INF,4,Firost
et,et,CCONJ,,cc,0,0,False,et,4,Firost
il,il,PRON,Gender=Masc|Number=Sing|Person=3|PronType=Prs,nsubj,0,0,False,il,4,Firost
se,se,PRON,Person=3|PronType=Prs,expl:comp,0,0,False,se,4,Firost
penche,pencher,VERB,Mood=Ind|Number=Sing|Person=3|Tense=Pres|VerbForm=Fin,conj,3,0,False,PRES,4,Firost
!,!,PUNCT,,punct,0,0,False,!,4,Firost
Si,si,SCONJ,,mark,0,0,True,si,5,Firost
ce,ce,DET,Gender=Masc|Number=Sing|PronType=Dem,det,0,0,False,ce,5,Firost
mec,mec,NOUN,Gender=Masc|Number=Sing,obl:mod,1,2,False,NC,5,Firost
crève,cref,ADJ,Gender=Masc|Number=Sing,amod,0,0,False,ADJ,5,Firost
",",",",PUNCT,,punct,0,0,False,",",5,Firost
j',il,PRON,Number=Sing|Person=1|PronType=Prs,nsubj,0,0,False,je,5,Firost
irai,ir,VERB,Mood=Ind|Number=Sing|Person=1|Tense=Fut|VerbForm=Fin,ROOT,3,3,False,VF,5,Firost
pas,pas,ADV,Polarity=Neg,advmod,0,0,False,pas,5,Firost
pleurer,pleurer,VERB,VerbForm=Inf,xcomp,0,0,False,INF,5,Firost
!,!,PUNCT,,punct,0,0,False,!,5,Firost
Ergo,Ergo,PROPN,,nsubj,0,0,True,PROPN,6,Firost
l',le,PRON,Number=Sing|Person=3|PronType=Prs,obj,0,0,False,le,6,Firost
a,avoir,AUX,Mood=Ind|Number=Sing|Person=3|Tense=Pres|VerbForm=Fin,aux:tense,0,0,False,avoir,6,Firost
sauvé,sauver,VERB,Gender=Masc|Number=Sing|Tense=Past|VerbForm=Part,ROOT,3,3,False,PPAS,6,Firost
in,in,ADP,,case,0,0,False,in,6,Firost
extremis,extremis,NOUN,,obl,1,0,False,NC,6,Firost
",",",",PUNCT,,punct,0,0,False,",",6,Firost
il,il,PRON,Gender=Masc|Number=Sing|Person=3|PronType=Prs,nsubj,0,0,False,il,6,Firost
est,être,AUX,Mood=Ind|Number=Sing|Person=3|Tense=Pres|VerbForm=Fin,cop,0,0,False,être,6,Firost
magistral,magistral,ADJ,Gender=Masc|Number=Sing,conj,3,0,False,ADJ,6,Firost
.,.,PUNCT,,punct,0,0,False,.,6,Firost
Quand,quand,SCONJ,,mark,0,0,True,quand,7,Firost
je,il,PRON,Number=Sing|Person=1|PronType=Prs,nsubj,0,0,False,je,7,Firost
pense,penser,VERB,Mood=Ind|Number=Sing|Person=1|Tense=Pres|VerbForm=Fin,ROOT,2,2,False,PRES,7,Firost
qu',que,SCONJ,,mark,0,0,False,que,7,Firost
on,on,PRON,Gender=Masc|Number=Sing|Person=3,nsubj,0,0,False,on,7,Firost
a,avoir,AUX,Mood=Ind|Number=Sing|Person=3|Tense=Pres|VerbForm=Fin,aux:tense,0,0,False,avoir,7,Firost
perdu,perdre,VERB,Gender=Masc|Number=Sing|Tense=Past|VerbForm=Part,ccomp,3,1,False,PPAS,7,Firost
un,un,DET,Definite=Ind|Gender=Masc|Number=Sing|PronType=Art,det,0,0,False,un,7,Firost
Karst,Karst,PROPN,,obj,1,1,False,PROPN,7,Firost
et,et,CCONJ,,cc,0,0,False,et,7,Firost
qu',que,PRON,PronType=Rel,obj,0,0,False,que,7,Firost
on,on,PRON,Gender=Masc|Number=Sing|Person=3,nsubj,0,0,False,on,7,Firost
a,avoir,VERB,Mood=Ind|Number=Sing|Person=3|Tense=Pres|VerbForm=Fin,conj,3,3,False,avoir,7,Firost
encore,encore,ADV,,advmod,0,0,False,encore,7,Firost
un,un,DET,Definite=Ind|Gender=Masc|Number=Sing|PronType=Art,det,0,0,False,un,7,Firost
Larco,Larco,PROPN,,obj,1,0,False,PROPN,7,Firost
dans,dans,ADP,,case,0,0,False,dans,7,Firost
les,le,DET,Definite=Def|Gender=Fem|Number=Plur|PronType=Art,det,0,0,False,le,7,Firost
pattes,patte,NOUN,Gender=Fem|Number=Plur,obl:mod,2,0,False,NC,7,Firost
!,!,PUNCT,,punct,0,0,False,!,7,Firost
Allez,aller,VERB,Mood=Imp|Number=Plur|Person=2|Tense=Pres|VerbForm=Fin,ROOT,0,2,True,IMP,8,Firost
comprendre,comprendre,VERB,VerbForm=Inf,xcomp,0,0,False,INF,8,Firost
...,...,PUNCT,,punct,0,0,False,...,8,Firost
Y,y,PRON,,expl:comp,0,0,True,y,9,Firost
a,avoir,VERB,Mood=Ind|Number=Sing|Person=3|Tense=Pres|VerbForm=Fin,ROOT,1,3,False,avoir,9,Firost
pas,pas,ADV,Polarity=Neg,advmod,0,0,False,pas,9,Firost
de,un,DET,Definite=Ind|Gender=Fem|Number=Sing|PronType=Art,det,0,0,False,un,9,Firost
justice,justice,NOUN,Gender=Fem|Number=Sing,obj,1,0,False,NC,9,Firost
...,...,PUNCT,,punct,0,0,False,...,9,Firost
Un,un,DET,Definite=Ind|Gender=Masc|Number=Sing|PronType=Art,det,0,0,True,un,10,Firost
gars,gars,NOUN,Gender=Masc|Number=Sing,ROOT,1,2,False,NC,10,Firost
qu',que,PRON,PronType=Rel,obj,0,0,False,que,10,Firost
a,avoir,AUX,Mood=Ind|Number=Sing|Person=3|Tense=Pres|VerbForm=Fin,aux:tense,0,0,False,avoir,10,Firost
même,même,ADV,,advmod,0,0,False,même,10,Firost
pas,pas,ADV,Polarity=Neg,advmod,0,0,False,pas,10,Firost
été,être,AUX,Gender=Masc|Number=Sing|Tense=Past|VerbForm=Part,aux:pass,0,0,False,être,10,Firost
hordonné,hordonner,VERB,Gender=Masc|Number=Sing|Tense=Past|VerbForm=Part,acl:relcl,5,0,False,PPAS,10,Firost
...,...,PUNCT,,punct,0,0,False,...,10,Firost
Karst,Karst,PROPN,,advcl,0,1,True,PROPN,11,Firost
",",",",PUNCT,,punct,0,0,False,",",11,Firost
il,il,PRON,Gender=Masc|Number=Sing|Person=3|PronType=Prs,nsubj,0,0,False,il,11,Firost
nous,lui,PRON,Number=Plur|Person=1|PronType=Prs,iobj,0,0,False,nous,11,Firost
manque,manquer,VERB,Mood=Ind|Number=Sing|Person=3|Tense=Pres|VerbForm=Fin,ROOT,3,2,False,PRES,11,Firost
",",",",PUNCT,,punct,0,0,False,",",11,Firost
il,il,PRON,Gender=Masc|Number=Sing|Person=3|PronType=Prs,nsubj,0,0,False,il,11,Firost
nous,lui,PRON,Number=Plur|Person=1|PronType=Prs,iobj,0,0,False,nous,11,Firost
manque,manquer,VERB,Mood=Ind|Number=Sing|Person=3|Tense=Pres|VerbForm=Fin,conj,3,1,False,PRES,11,Firost
méchamment,méchamment,ADV,,advmod,0,0,False,ADVMAN,11,Firost
.,.,PUNCT,,punct,0,0,False,.,11,Firost
De,de,ADP,,case,0,0,True,de,12,Firost
les,le,DET,Definite=Def|Gender=Masc|Number=Plur|PronType=Art,det,0,0,False,le,12,Firost
ailiers,ailier,NOUN,Gender=Masc|Number=Plur,obl:mod,2,2,False,NC,12,Firost
comme,comme,ADP,,case,0,0,False,comme,12,Firost
lui,lui,PRON,Number=Sing|Person=3|PronType=Prs,nmod,1,1,False,lui,12,Firost
et,et,CCONJ,,cc,0,0,False,et,12,Firost
son,son,DET,Gender=Masc|Number=Sing|Poss=Yes|PronType=Prs,det,0,0,False,son,12,Firost
frangin,frangin,NOUN,Gender=Masc|Number=Sing,conj,2,0,False,NC,12,Firost
",",",",PUNCT,,punct,0,0,False,",",12,Firost
autant,autant,ADV,,advmod,0,0,False,autant,12,Firost
dire,dire,VERB,VerbForm=Inf,ROOT,2,2,False,INF,12,Firost
",",",",PUNCT,,punct,0,0,False,",",12,Firost
ça,ça,PRON,Gender=Masc|Number=Sing|Person=3|PronType=Dem,nsubj,0,0,False,ça,12,Firost
se,se,PRON,Person=3|PronType=Prs,expl:pass,0,0,False,se,12,Firost
remplace,remplacer,VERB,Mood=Ind|Number=Sing|Person=3|Tense=Pres|VerbForm=Fin,conj,3,1,False,PRES,12,Firost
pas,pas,ADV,Polarity=Neg,advmod,0,0,False,pas,12,Firost
.,.,PUNCT,,punct,0,0,False,.,12,Firost
On,on,PRON,Gender=Masc|Number=Sing|Person=3,nsubj,0,0,True,on,13,Firost
peut,pouvoir,VERB,Mood=Ind|Number=Sing|Person=3|Tense=Pres|VerbForm=Fin,ROOT,1,3,False,PRES,13,Firost
perdre,perdre,VERB,VerbForm=Inf,xcomp,0,1,False,INF,13,Firost
un,un,DET,Definite=Ind|Gender=Masc|Number=Sing|PronType=Art,det,0,0,False,un,13,Firost
croc,croc,NOUN,Gender=Masc|Number=Sing,obj,1,0,False,NC,13,Firost
",",",",PUNCT,,punct,0,0,False,",",13,Firost
mais,mais,CCONJ,,cc,0,0,False,mais,13,Firost
pas,pas,ADV,Polarity=Neg,advmod,0,0,False,pas,13,Firost
un,un,DET,Definite=Ind|Gender=Masc|Number=Sing|PronType=Art,det,0,0,False,un,13,Firost
ailier,ailier,NOUN,Gender=Masc|Number=Sing,conj,4,0,False,NC,13,Firost
.,.,PUNCT,,punct,0,0,False,.,13,Firost
Le,le,DET,Definite=Def|Gender=Masc|Number=Sing|PronType=Art,det,0,0,True,le,14,Firost
courant,courant,NOUN,Gender=Masc|Number=Sing,nsubj,1,0,False,NC,14,Firost
a,avoir,AUX,Mood=Ind|Number=Sing|Person=3|Tense=Pres|VerbForm=Fin,aux:tense,0,0,False,avoir,14,Firost
ralenti,ralentir,VERB,Gender=Masc|Number=Sing|Tense=Past|VerbForm=Part,ROOT,2,4,False,PPAS,14,Firost
enfin,enfin,ADV,,advmod,0,0,False,enfin,14,Firost
",",",",PUNCT,,punct,0,0,False,",",14,Firost
j',il,PRON,Number=Sing|Person=1|PronType=Prs,nsubj,0,0,False,je,14,Firost
y,y,PRON,,iobj,0,0,False,y,14,Firost
croyais,croyais,VERB,Mood=Ind|Number=Sing|Person=1|Tense=Imp|VerbForm=Fin,conj,3,1,False,VIMP,14,Firost
plus,plus,ADV,,advmod,0,0,False,plus,14,Firost
",",",",PUNCT,,punct,0,0,False,",",14,Firost
et,et,CCONJ,,cc,0,0,False,et,14,Firost
le,le,DET,Definite=Def|Gender=Masc|Number=Sing|PronType=Art,det,0,0,False,le,14,Firost
niveau,niveau,NOUN,Gender=Masc|Number=Sing,nsubj,1,1,False,NC,14,Firost
d',de,ADP,,case,0,0,False,de,14,Firost
eau,eau,NOUN,Gender=Fem|Number=Sing,nmod,1,0,False,NC,14,Firost
a,avoir,AUX,Mood=Ind|Number=Sing|Person=3|Tense=Pres|VerbForm=Fin,aux:tense,0,0,False,avoir,14,Firost
foutrement,foutrement,ADV,,advmod,0,0,False,ADVINT,14,Firost
baissé,baisser,VERB,Gender=Masc|Number=Sing|Tense=Past|VerbForm=Part,conj,5,0,False,PPAS,14,Firost
.,.,PUNCT,,punct,0,0,False,.,14,Firost
T',le,PRON,Number=Sing|Person=2|PronType=Prs,nsubj,0,0,True,le,15,Firost
as,avoir,AUX,Mood=Ind|Number=Sing|Person=2|Tense=Pres|VerbForm=Fin,cop,0,0,False,avoir,15,Firost
plus,plus,ADV,,advmod,0,0,False,plus,15,Firost
besoin,besoin,NOUN,Gender=Masc|Number=Sing,ROOT,3,2,False,NCABS,15,Firost
de,de,ADP,,mark,0,0,False,de,15,Firost
te,se,PRON,Number=Sing|Person=2|PronType=Prs,obj,0,0,False,te,15,Firost
tenir,tenir,VERB,VerbForm=Inf,acl,2,1,False,INF,15,Firost
à,à,ADP,,case,0,0,False,à,15,Firost
la,le,DET,Definite=Def|Gender=Fem|Number=Sing|PronType=Art,det,0,0,False,le,15,Firost
rambarde,rambarde,NOUN,Gender=Fem|Number=Sing,obl:arg,2,1,False,NC,15,Firost
à,à,ADP,,advmod,0,1,False,à,15,Firost
présent,présent,NOUN,Gender=Masc|Number=Sing,fixed,0,0,False,NC,15,Firost
.,.,PUNCT,,punct,0,0,False,.,15,Firost
Le,le,DET,Definite=Def|Gender=Masc|Number=Sing|PronType=Art,det,0,0,True,le,16,Firost
siphon,siphon,NOUN,Gender=Masc|Number=Sing,nsubj,1,0,False,NC,16,Firost
se,se,PRON,Person=3|PronType=Prs,expl:pass,0,0,False,se,16,Firost
tarit,tarire,VERB,Mood=Ind|Number=Sing|Person=3|Tense=Pres|VerbForm=Fin,ROOT,2,2,False,PRES,16,Firost
",",",",PUNCT,,punct,0,0,False,",",16,Firost
on,on,PRON,Gender=Masc|Number=Sing|Person=3,nsubj,0,0,False,on,16,Firost
dirait,dire,VERB,Mood=Cnd|Number=Sing|Person=3|Tense=Pres|VerbForm=Fin,conj,2,0,False,VCOND,16,Firost
.,.,PUNCT,,punct,0,0,False,.,16,Firost
À,à,ADP,,case,0,0,True,à,17,Firost
ça,ça,PRON,Gender=Masc|Number=Sing|Person=3|PronType=Dem,obl:mod,1,1,False,ça,17,Firost
près,près,ADV,,advmod,0,0,False,ADV,17,Firost
qu',que,SCONJ,,mark,0,0,False,que,17,Firost
il,il,PRON,Gender=Masc|Number=Sing|Person=3|PronType=Prs,nsubj,0,0,False,il,17,Firost
s',se,PRON,Person=3|PronType=Prs,expl:comp,0,0,False,se,17,Firost
élargit,élargir,VERB,Mood=Ind|Number=Sing|Person=3|Tense=Pres|VerbForm=Fin,ROOT,4,3,False,PRES,17,Firost
encore,encore,ADV,,advmod,0,0,False,encore,17,Firost
et,et,CCONJ,,cc,0,0,False,et,17,Firost
qu',que,PRON,PronType=Rel,obj,0,0,False,que,17,Firost
il,il,PRON,Gender=Masc|Number=Sing|Person=3|PronType=Prs,expl:subj,0,0,False,il,17,Firost
faut,falloir,VERB,Mood=Ind|Number=Sing|Person=3|Tense=Pres|VerbForm=Fin,conj,3,1,False,PRES,17,Firost
reculer,reculer,VERB,VerbForm=Inf,ccomp,0,0,False,INF,17,Firost
.,.,PUNCT,,punct,0,0,False,.,17,Firost
L',le,DET,Definite=Def|Gender=Fem|Number=Sing|PronType=Art,det,0,0,True,le,18,Firost
eau,eau,NOUN,Gender=Fem|Number=Sing,nsubj,1,0,False,NC,18,Firost
est,être,AUX,Mood=Ind|Number=Sing|Person=3|Tense=Pres|VerbForm=Fin,cop,0,0,False,être,18,Firost
molle,mou,ADJ,Gender=Fem|Number=Sing,ROOT,2,2,False,ADJ,18,Firost
",",",",PUNCT,,punct,0,0,False,",",18,Firost
elle,il,PRON,Gender=Fem|Number=Sing|Person=3|PronType=Prs,nsubj,0,0,False,elle,18,Firost
est,être,AUX,Mood=Ind|Number=Sing|Person=3|Tense=Pres|VerbForm=Fin,cop,0,0,False,être,18,Firost
bizarre,bizarre,ADJ,Gender=Fem|Number=Sing,conj,3,0,False,ADJ,18,Firost
.,.,PUNCT,,punct,0,0,False,.,18,Firost
Et,et,CCONJ,,cc,0,0,True,et,19,Firost
à,à,ADP,,mark,0,0,False,à,19,Firost
observer,observer,VERB,VerbForm=Inf,advcl,2,2,False,INF,19,Firost
les,le,DET,Definite=Def|Gender=Masc|Number=Plur|PronType=Art,det,0,0,False,le,19,Firost
gueules,gueule,NOUN,Gender=Masc|Number=Plur,obj,1,1,False,NC,19,Firost
de,de,ADP,,case,0,0,False,de,19,Firost
ceux,celui,PRON,Gender=Masc|Number=Plur|PronType=Dem,nmod,1,1,False,celui,19,Firost
qui,qui,PRON,PronType=Rel,nsubj,0,0,False,qui,19,Firost
ont,avoir,VERB,Mood=Ind|Number=Plur|Person=3|Tense=Pres|VerbForm=Fin,acl:relcl,1,1,False,avoir,19,Firost
la,le,DET,Definite=Def|Gender=Fem|Number=Sing|PronType=Art,det,0,0,False,le,19,Firost
mauvaise,mauvais,ADJ,Gender=Fem|Number=Sing,amod,0,0,False,ADJ,19,Firost
idée,idée,NOUN,Gender=Fem|Number=Sing,obj,2,1,False,NC,19,Firost
de,de,ADP,,mark,0,0,False,de,19,Firost
jeter,jeter,VERB,VerbForm=Inf,acl,1,2,False,INF,19,Firost
un,un,DET,Definite=Ind|Gender=Masc|Number=Sing|PronType=Art,det,0,0,False,un,19,Firost
œil,œil,NOUN,Gender=Masc|Number=Sing,obj,1,0,False,NC,19,Firost
dans,dans,ADP,,case,0,0,False,dans,19,Firost
le,le,DET,Definite=Def|Gender=Masc|Number=Sing|PronType=Art,det,0,0,False,le,19,Firost
trou,trou,NOUN,Gender=Masc|Number=Sing,obl:arg,2,0,False,NC,19,Firost
",",",",PUNCT,,punct,0,0,False,",",19,Firost
il,il,PRON,Gender=Masc|Number=Sing|Person=3|PronType=Prs,nsubj,0,0,False,il,19,Firost
fait,faire,VERB,Mood=Ind|Number=Sing|Person=3|Tense=Pres|VerbForm=Fin,ROOT,2,4,False,PRES,19,Firost
pas,pas,ADV,Polarity=Neg,advmod,0,0,False,pas,19,Firost
bon,bon,ADJ,Gender=Masc|Number=Sing,xcomp,0,0,False,ADJ,19,Firost
regarder,regarder,VERB,VerbForm=Inf,advcl,0,1,False,INF,19,Firost
ce,ce,PRON,Number=Sing|Person=3|PronType=Dem,obj,0,1,False,ce,19,Firost
qui,qui,PRON,PronType=Rel,nsubj,0,0,False,qui,19,Firost
s',se,PRON,Person=3|PronType=Prs,expl:comp,0,0,False,se,19,Firost
y,y,PRON,,iobj,0,0,False,y,19,Firost
passe,passer,VERB,Mood=Ind|Number=Sing|Person=3|Tense=Pres|VerbForm=Fin,acl:relcl,3,0,False,PRES,19,Firost
.,.,PUNCT,,punct,0,0,False,.,19,Firost
Pas,pas,ADV,Polarity=Neg,advmod,0,0,True,pas,20,Firost
bon,bon,ADJ,Gender=Masc|Number=Sing,ROOT,1,2,False,ADJ,20,Firost
de,de,ADP,,advmod,0,2,False,de,20,Firost
le,le,DET,Definite=Def|Gender=Masc|Number=Sing|PronType=Art,fixed,0,0,False,le,20,Firost
tout,tout,NOUN,Gender=Masc|Number=Sing,fixed,0,0,False,tout,20,Firost
...,...,PUNCT,,punct,0,0,False,...,20,Firost
À,à,ADP,,case,0,0,True,à,21,Firost
ma,son,DET,Gender=Fem|Number=Sing|Poss=Yes|PronType=Prs,det,0,0,False,son,21,Firost
droite,droite,NOUN,Gender=Fem|Number=Sing,obl:mod,2,1,False,NC,21,Firost
",",",",PUNCT,,punct,0,0,False,",",21,Firost
Arval,Arval,PROPN,,nsubj,0,0,False,PROPN,21,Firost
est,être,AUX,Mood=Ind|Number=Sing|Person=3|Tense=Pres|VerbForm=Fin,cop,0,0,False,être,21,Firost
tout,tout,ADV,,advmod,0,0,False,tout,21,Firost
blanc,blanc,ADJ,Gender=Masc|Number=Sing,ROOT,4,3,False,ADJ,21,Firost
et,et,CCONJ,,cc,0,0,False,et,21,Firost
à,à,ADP,,case,0,0,False,à,21,Firost
ma,son,DET,Gender=Fem|Number=Sing|Poss=Yes|PronType=Prs,det,0,0,False,son,21,Firost
gauche,gauche,NOUN,Gender=Fem|Number=Sing,conj,3,0,False,NC,21,Firost
",",",",PUNCT,,punct,0,0,False,",",21,Firost
la,le,DET,Definite=Def|Gender=Fem|Number=Sing|PronType=Art,det,0,0,False,le,21,Firost
petite,petit,ADJ,Gender=Fem|Number=Sing,amod,0,0,False,ADJ,21,Firost
Aoi,Aoi,PROPN,,nsubj,2,0,False,PROPN,21,Firost
a,avoir,VERB,Mood=Ind|Number=Sing|Person=3|Tense=Pres|VerbForm=Fin,conj,2,1,False,avoir,21,Firost
de,de,ADP,,case,0,0,False,de,21,Firost
les,le,DET,Definite=Def|Gender=Masc|Number=Plur|PronType=Art,det,0,0,False,le,21,Firost
sanglots,sanglot,NOUN,Gender=Masc|Number=Plur,obl:arg,2,1,False,NC,21,Firost
qui,qui,PRON,PronType=Rel,nsubj,0,0,False,qui,21,Firost
font,faire,VERB,Mood=Ind|Number=Plur|Person=3|Tense=Pres|VerbForm=Fin,acl:relcl,1,1,False,PRES,21,Firost
mal,mal,NOUN,Gender=Masc|Number=Sing,obj,0,0,False,NC,21,Firost
...,...,PUNCT,,punct,0,0,False,...,21,Firost
J',il,PRON,Number=Sing|Person=1|PronType=Prs,nsubj,0,0,True,je,22,Firost
aime,aimer,VERB,Mood=Ind|Number=Sing|Person=1|Tense=Pres|VerbForm=Fin,ROOT,1,3,False,PRES,22,Firost
pas,pas,ADV,Polarity=Neg,advmod,0,0,False,pas,22,Firost
ça,ça,PRON,Gender=Masc|Number=Sing|Person=3|PronType=Dem,obj,0,0,False,ça,22,Firost
.,.,PUNCT,,punct,0,0,False,.,22,Firost
Depuis,depuis,ADP,,case,0,0,True,depuis,23,Firost
la,le,DET,Definite=Def|Gender=Fem|Number=Sing|PronType=Art,det,0,0,False,le,23,Firost
tour,tour,NOUN,Gender=Fem|Number=Sing,obl:mod,2,2,False,NC,23,Firost
Fontaine,Fontain,ADJ,Gender=Fem|Number=Sing,amod,0,0,False,ADJ,23,Firost
",",",",PUNCT,,punct,0,0,False,",",23,Firost
je,il,PRON,Number=Sing|Person=1|PronType=Prs,nsubj,0,0,False,je,23,Firost
fais,faire,VERB,Mood=Ind|Number=Sing|Person=1|Tense=Pres|VerbForm=Fin,ROOT,2,4,False,PRES,23,Firost
plus,plus,ADV,,advmod,0,0,False,plus,23,Firost
le,le,DET,Definite=Def|Gender=Masc|Number=Sing|PronType=Art,det,0,0,False,le,23,Firost
mariole,mariole,NOUN,Gender=Masc|Number=Sing,obj,1,0,False,NC,23,Firost
avec,avec,ADP,,case,0,0,False,avec,23,Firost
les,le,DET,Definite=Def|Gender=Fem|Number=Plur|PronType=Art,det,0,0,False,le,23,Firost
chrones,chrone,NOUN,Gender=Fem|Number=Plur,obl:arg,2,0,False,NC,23,Firost
.,.,PUNCT,,punct,0,0,False,.,23,Firost
